{
    "@context": {
		"@vocab": "https://de.wikipedia.org/wiki/GAIA-X#",
        "owl": "http://www.w3.org/2002/07/owl#",
        "rdf": "http://www.w3.org/1999/02/22-rdf-syntax-ns#",
        "rdfs": "http://www.w3.org/2000/01/rdf-schema#",
        "xsd": "http://www.w3.org/2001/XMLSchema#",
		"schema": "http://schema.org/",
		"edm": "http://ai4bd.com/resource/edm/",
		"vc": "https://www.w3.org/2018/credentials/v1",
		"foaf": "http://xmlns.com/foaf/"
    },
    "@id": "did:gaia-x:aisign-self-descr-id-123",
    "@type": "ServiceSelfDescription",
    "rdfs:label": "AISIGN Service",
    "describedBy": [
        {
            "@id": "did:gaia-x:aisign-self-descr-id-123",
            "@type": "MetaData",
            "schema:name":"AISIGN",
            "schema:version": "1.2",
            "providedBy": {
                "@id": "did:gaia-x:ai4bd-company",
                "@type": "ServiceProvider",
                "schema:name": "AI4BD Deutschland GmbH",
                "schema:address": "Gerwigstraße 6, 78120 Furtwangen",
                "schema:url": "https://www.ai4bd.com",
				"contactTechnical" : {
					"@id": "did:gaia-x:ai4bd-contact-devops1",
					"@type": "foaf:Person",
					"schema:name": "Max",
					"schema:email": "devops1@ai4bd.com"
				}
            }
        }
    ],
    "includes": [
        {
            "@type": "Testimonial",
            "@id": "did:gaia-x:testimonial-deployment-id123",
            "rdfs:label": "Deployment Testimonial",
            "includes": [
                {
                    "@type": "KubernetesDeployTarget",
                    "instruction": ["URL-to-k8s-deployment-script1","URL-to-k8s-deployment-script2"],
                    "source": {
                        "@type": "ImageSource",
                        "schema:url": "https://dockers1.ai4bd.org",
                        "login": "username4registry",
                        "password": "password4registry"
                    }
                },
                {
                    "@type": "DockerComposeDeployTarget",
                    "instruction": ["URL-to-dc-deployment-script1","URL-to-dc-deployment-script2"],
                    "source": {
                        "@type": "ImageSource",
                        "schema:url": "https://dockers1.ai4bd.org",
                        "login": "username4registry",
                        "password": "password4registry"
                    }
                }
            ],
			"requires": [
				{
					"@type": "Node",
					"contains" : {
						"@type" : "HardwareSpecification",
						"minCpu": 1,
						"maxCpu" : 5,
						"minMemory" : "300mb",
						"maxMemory" : "1gb"
					}
				}
			],
            "provenBy": [{
                "@type": ["JwtProof","Proof"],
				"@id": "http://ai4bd.com/resource/edm/proof/123",
				"vc:created": "2020-09-01T21:19:10Z",
				"vc:proofPurpose": "assertionMethod",
				"vc:verificationMethod": "https://sso.ai4bd.org/verify",
				"vc:jws": "eyJhbGciOiJSUzI1NiIsImI2NCI6ZmFsc2UsImNyaXQiOlsiYjY0Il19..TCYt5XsITJX1CxPCT8yAV-TVkIEq_PbChOMqsLfRoPsnsgw5WEuts01mq-pQy7UJiN5mgRxD-WUcX16dUEMGlv50aqzpqh4Qktb3rk-BuQy72IFLOqV0G_zS245-kronKb78cPN25DGlcTwLtjPAYuNzVBAh4vGHSrQyHUdBBPM"
            }]
        },
        {
            "@type": "Testimonial",
            "@id": "did:gaia-x:testimonial-service-id123",
            "rdfs:label": "Service API Testimonial",
            "includes": [
                {
                    "@type": "OpenAPI",
					"rdfs:label": "Service OpenAPI File",
                    "schema:url": "url-to-open-api"
                },
                {
                    "@type": "ServiceDescription",
					"rdfs:label": "Semantic Service Description",
                    "consumes": {
                        "@type": "Image",
                        "edm:contentType": "image/png",
                        "edm:depicts": "handwriting"
                    },
                    "produces": {
                        "@type": "Json",
                        "edm:schema": {
                            "@type": "JsonObject",
                            "edm:textField": "Predicted text",
                            "edm:confidence": "Confidence of the predicted text."
                        }
                    }
                }
            ],
            "provenBy": [
                {
                "@type": ["JwtProof","Proof"],
				"@id": "http://ai4bd.com/resource/edm/proof/123",
				"vc:created": "2020-09-01T21:19:10Z",
				"vc:proofPurpose": "assertionMethod",
				"vc:verificationMethod": "https://sso.ai4bd.org/verify",
				"vc:jws": "eyJhbGciOiJSUzI1NiIsImI2NCI6ZmFsc2UsImNyaXQiOlsiYjY0Il19..TCYt5XsITJX1CxPCT8yAV-TVkIEq_PbChOMqsLfRoPsnsgw5WEuts01mq-pQy7UJiN5mgRxD-WUcX16dUEMGlv50aqzpqh4Qktb3rk-BuQy72IFLOqV0G_zS245-kronKb78cPN25DGlcTwLtjPAYuNzVBAh4vGHSrQyHUdBBPM"
            }
            ]
        },
        {
            "@type": "Testimonial",
            "@id": "did:gaia-x:testimonial-payment-id123",
            "rdfs:label": "Payment Model Testimonial",
            "includes": [
                {
                    "@type": "PayPerUsePaymentModel",
                    "amount": "1",
                    "unit": "EUR"
                }
            ],
            "provenBy": [
                {
                "@type": ["JwtProof","Proof"],
				"@id": "http://ai4bd.com/resource/edm/proof/123",
				"vc:created": "2020-09-01T21:19:10Z",
				"vc:proofPurpose": "assertionMethod",
				"vc:verificationMethod": "https://sso.ai4bd.org/verify",
				"vc:jws": "eyJhbGciOiJSUzI1NiIsImI2NCI6ZmFsc2UsImNyaXQiOlsiYjY0Il19..TCYt5XsITJX1CxPCT8yAV-TVkIEq_PbChOMqsLfRoPsnsgw5WEuts01mq-pQy7UJiN5mgRxD-WUcX16dUEMGlv50aqzpqh4Qktb3rk-BuQy72IFLOqV0G_zS245-kronKb78cPN25DGlcTwLtjPAYuNzVBAh4vGHSrQyHUdBBPM"
            }
            ]
        }
    ],
    "provenBy": [
                {
                "@type": ["JwtProof","Proof"],
				"@id": "http://ai4bd.com/resource/edm/proof/123",
				"vc:created": "2020-09-01T21:19:10Z",
				"vc:proofPurpose": "assertionMethod",
				"vc:verificationMethod": "https://sso.ai4bd.org/verify",
				"vc:jws": "eyJhbGciOiJSUzI1NiIsImI2NCI6ZmFsc2UsImNyaXQiOlsiYjY0Il19..TCYt5XsITJX1CxPCT8yAV-TVkIEq_PbChOMqsLfRoPsnsgw5WEuts01mq-pQy7UJiN5mgRxD-WUcX16dUEMGlv50aqzpqh4Qktb3rk-BuQy72IFLOqV0G_zS245-kronKb78cPN25DGlcTwLtjPAYuNzVBAh4vGHSrQyHUdBBPM"
            }
    ]
}